(kicad_sch (version 20230121) (generator eeschema)

  (uuid 25d732cf-5b86-4d80-b3e8-a940981daf01)

  (paper "A4")

  (lib_symbols
    (symbol "Connector_Generic:Conn_02x03_Odd_Even" (pin_names (offset 1.016) hide) (in_bom yes) (on_board yes)
      (property "Reference" "J" (at 1.27 5.08 0)
        (effects (font (size 1.27 1.27)))
      )
      (property "Value" "Conn_02x03_Odd_Even" (at 1.27 -5.08 0)
        (effects (font (size 1.27 1.27)))
      )
      (property "Footprint" "" (at 0 0 0)
        (effects (font (size 1.27 1.27)) hide)
      )
      (property "Datasheet" "~" (at 0 0 0)
        (effects (font (size 1.27 1.27)) hide)
      )
      (property "ki_keywords" "connector" (at 0 0 0)
        (effects (font (size 1.27 1.27)) hide)
      )
      (property "ki_description" "Generic connector, double row, 02x03, odd/even pin numbering scheme (row 1 odd numbers, row 2 even numbers), script generated (kicad-library-utils/schlib/autogen/connector/)" (at 0 0 0)
        (effects (font (size 1.27 1.27)) hide)
      )
      (property "ki_fp_filters" "Connector*:*_2x??_*" (at 0 0 0)
        (effects (font (size 1.27 1.27)) hide)
      )
      (symbol "Conn_02x03_Odd_Even_1_1"
        (rectangle (start -1.27 -2.413) (end 0 -2.667)
          (stroke (width 0.1524) (type default))
          (fill (type none))
        )
        (rectangle (start -1.27 0.127) (end 0 -0.127)
          (stroke (width 0.1524) (type default))
          (fill (type none))
        )
        (rectangle (start -1.27 2.667) (end 0 2.413)
          (stroke (width 0.1524) (type default))
          (fill (type none))
        )
        (rectangle (start -1.27 3.81) (end 3.81 -3.81)
          (stroke (width 0.254) (type default))
          (fill (type background))
        )
        (rectangle (start 3.81 -2.413) (end 2.54 -2.667)
          (stroke (width 0.1524) (type default))
          (fill (type none))
        )
        (rectangle (start 3.81 0.127) (end 2.54 -0.127)
          (stroke (width 0.1524) (type default))
          (fill (type none))
        )
        (rectangle (start 3.81 2.667) (end 2.54 2.413)
          (stroke (width 0.1524) (type default))
          (fill (type none))
        )
        (pin passive line (at -5.08 2.54 0) (length 3.81)
          (name "Pin_1" (effects (font (size 1.27 1.27))))
          (number "1" (effects (font (size 1.27 1.27))))
        )
        (pin passive line (at 7.62 2.54 180) (length 3.81)
          (name "Pin_2" (effects (font (size 1.27 1.27))))
          (number "2" (effects (font (size 1.27 1.27))))
        )
        (pin passive line (at -5.08 0 0) (length 3.81)
          (name "Pin_3" (effects (font (size 1.27 1.27))))
          (number "3" (effects (font (size 1.27 1.27))))
        )
        (pin passive line (at 7.62 0 180) (length 3.81)
          (name "Pin_4" (effects (font (size 1.27 1.27))))
          (number "4" (effects (font (size 1.27 1.27))))
        )
        (pin passive line (at -5.08 -2.54 0) (length 3.81)
          (name "Pin_5" (effects (font (size 1.27 1.27))))
          (number "5" (effects (font (size 1.27 1.27))))
        )
        (pin passive line (at 7.62 -2.54 180) (length 3.81)
          (name "Pin_6" (effects (font (size 1.27 1.27))))
          (number "6" (effects (font (size 1.27 1.27))))
        )
      )
    )
    (symbol "Device:C_Small" (pin_numbers hide) (pin_names (offset 0.254) hide) (in_bom yes) (on_board yes)
      (property "Reference" "C" (at 0.254 1.778 0)
        (effects (font (size 1.27 1.27)) (justify left))
      )
      (property "Value" "C_Small" (at 0.254 -2.032 0)
        (effects (font (size 1.27 1.27)) (justify left))
      )
      (property "Footprint" "" (at 0 0 0)
        (effects (font (size 1.27 1.27)) hide)
      )
      (property "Datasheet" "~" (at 0 0 0)
        (effects (font (size 1.27 1.27)) hide)
      )
      (property "ki_keywords" "capacitor cap" (at 0 0 0)
        (effects (font (size 1.27 1.27)) hide)
      )
      (property "ki_description" "Unpolarized capacitor, small symbol" (at 0 0 0)
        (effects (font (size 1.27 1.27)) hide)
      )
      (property "ki_fp_filters" "C_*" (at 0 0 0)
        (effects (font (size 1.27 1.27)) hide)
      )
      (symbol "C_Small_0_1"
        (polyline
          (pts
            (xy -1.524 -0.508)
            (xy 1.524 -0.508)
          )
          (stroke (width 0.3302) (type default))
          (fill (type none))
        )
        (polyline
          (pts
            (xy -1.524 0.508)
            (xy 1.524 0.508)
          )
          (stroke (width 0.3048) (type default))
          (fill (type none))
        )
      )
      (symbol "C_Small_1_1"
        (pin passive line (at 0 2.54 270) (length 2.032)
          (name "~" (effects (font (size 1.27 1.27))))
          (number "1" (effects (font (size 1.27 1.27))))
        )
        (pin passive line (at 0 -2.54 90) (length 2.032)
          (name "~" (effects (font (size 1.27 1.27))))
          (number "2" (effects (font (size 1.27 1.27))))
        )
      )
    )
    (symbol "Device:R_Small" (pin_numbers hide) (pin_names (offset 0.254) hide) (in_bom yes) (on_board yes)
      (property "Reference" "R" (at 0.762 0.508 0)
        (effects (font (size 1.27 1.27)) (justify left))
      )
      (property "Value" "R_Small" (at 0.762 -1.016 0)
        (effects (font (size 1.27 1.27)) (justify left))
      )
      (property "Footprint" "" (at 0 0 0)
        (effects (font (size 1.27 1.27)) hide)
      )
      (property "Datasheet" "~" (at 0 0 0)
        (effects (font (size 1.27 1.27)) hide)
      )
      (property "ki_keywords" "R resistor" (at 0 0 0)
        (effects (font (size 1.27 1.27)) hide)
      )
      (property "ki_description" "Resistor, small symbol" (at 0 0 0)
        (effects (font (size 1.27 1.27)) hide)
      )
      (property "ki_fp_filters" "R_*" (at 0 0 0)
        (effects (font (size 1.27 1.27)) hide)
      )
      (symbol "R_Small_0_1"
        (rectangle (start -0.762 1.778) (end 0.762 -1.778)
          (stroke (width 0.2032) (type default))
          (fill (type none))
        )
      )
      (symbol "R_Small_1_1"
        (pin passive line (at 0 2.54 270) (length 0.762)
          (name "~" (effects (font (size 1.27 1.27))))
          (number "1" (effects (font (size 1.27 1.27))))
        )
        (pin passive line (at 0 -2.54 90) (length 0.762)
          (name "~" (effects (font (size 1.27 1.27))))
          (number "2" (effects (font (size 1.27 1.27))))
        )
      )
    )
    (symbol "Jumper:Jumper_3_Bridged12" (pin_names (offset 0) hide) (in_bom yes) (on_board yes)
      (property "Reference" "JP" (at -2.54 -2.54 0)
        (effects (font (size 1.27 1.27)))
      )
      (property "Value" "Jumper_3_Bridged12" (at 0 2.794 0)
        (effects (font (size 1.27 1.27)))
      )
      (property "Footprint" "" (at 0 0 0)
        (effects (font (size 1.27 1.27)) hide)
      )
      (property "Datasheet" "~" (at 0 0 0)
        (effects (font (size 1.27 1.27)) hide)
      )
      (property "ki_keywords" "Jumper SPDT" (at 0 0 0)
        (effects (font (size 1.27 1.27)) hide)
      )
      (property "ki_description" "Jumper, 3-pole, pins 1+2 closed/bridged" (at 0 0 0)
        (effects (font (size 1.27 1.27)) hide)
      )
      (property "ki_fp_filters" "Jumper* TestPoint*3Pads* TestPoint*Bridge*" (at 0 0 0)
        (effects (font (size 1.27 1.27)) hide)
      )
      (symbol "Jumper_3_Bridged12_0_0"
        (circle (center -3.302 0) (radius 0.508)
          (stroke (width 0) (type default))
          (fill (type none))
        )
        (circle (center 0 0) (radius 0.508)
          (stroke (width 0) (type default))
          (fill (type none))
        )
        (circle (center 3.302 0) (radius 0.508)
          (stroke (width 0) (type default))
          (fill (type none))
        )
      )
      (symbol "Jumper_3_Bridged12_0_1"
        (arc (start -0.254 0.508) (mid -1.651 0.9912) (end -3.048 0.508)
          (stroke (width 0) (type default))
          (fill (type none))
        )
        (polyline
          (pts
            (xy 0 -1.27)
            (xy 0 -0.508)
          )
          (stroke (width 0) (type default))
          (fill (type none))
        )
      )
      (symbol "Jumper_3_Bridged12_1_1"
        (pin passive line (at -6.35 0 0) (length 2.54)
          (name "A" (effects (font (size 1.27 1.27))))
          (number "1" (effects (font (size 1.27 1.27))))
        )
        (pin passive line (at 0 -3.81 90) (length 2.54)
          (name "C" (effects (font (size 1.27 1.27))))
          (number "2" (effects (font (size 1.27 1.27))))
        )
        (pin passive line (at 6.35 0 180) (length 2.54)
          (name "B" (effects (font (size 1.27 1.27))))
          (number "3" (effects (font (size 1.27 1.27))))
        )
      )
    )
    (symbol "Pauls_Schm_Library:K24C02" (in_bom yes) (on_board yes)
      (property "Reference" "U" (at 0 5.08 0)
        (effects (font (size 1.27 1.27)))
      )
      (property "Value" "K24C02" (at 0 5.08 0)
        (effects (font (size 1.27 1.27)))
      )
      (property "Footprint" "Package_TO_SOT_SMD:SOT-23-5" (at 0 5.08 0)
        (effects (font (size 1.27 1.27)) hide)
      )
      (property "Datasheet" "" (at 0 5.08 0)
        (effects (font (size 1.27 1.27)) hide)
      )
      (property "ki_keywords" "EEPROM 256B i2C" (at 0 0 0)
        (effects (font (size 1.27 1.27)) hide)
      )
      (property "ki_description" "K24C02 2Kb/256B i2C EEPROM" (at 0 0 0)
        (effects (font (size 1.27 1.27)) hide)
      )
      (symbol "K24C02_1_1"
        (rectangle (start -5.08 3.81) (end 5.08 -3.81)
          (stroke (width 0) (type default))
          (fill (type background))
        )
        (pin input line (at -7.62 2.54 0) (length 2.54)
          (name "SCL" (effects (font (size 1.27 1.27))))
          (number "1" (effects (font (size 1.27 1.27))))
        )
        (pin power_in line (at -7.62 0 0) (length 2.54)
          (name "GDN" (effects (font (size 1.27 1.27))))
          (number "2" (effects (font (size 1.27 1.27))))
        )
        (pin bidirectional line (at -7.62 -2.54 0) (length 2.54)
          (name "SDA" (effects (font (size 1.27 1.27))))
          (number "3" (effects (font (size 1.27 1.27))))
        )
        (pin power_in line (at 7.62 -2.54 180) (length 2.54)
          (name "VCC" (effects (font (size 1.27 1.27))))
          (number "4" (effects (font (size 1.27 1.27))))
        )
        (pin input line (at 7.62 2.54 180) (length 2.54)
          (name "WP" (effects (font (size 1.27 1.27))))
          (number "5" (effects (font (size 1.27 1.27))))
        )
      )
    )
    (symbol "Pauls_Symbol_Library:SK6812MINI-E" (pin_names (offset 0.254)) (in_bom yes) (on_board yes)
      (property "Reference" "D" (at 5.08 5.715 0)
        (effects (font (size 1.27 1.27)) (justify right bottom))
      )
      (property "Value" "SK6812MINI-E" (at 1.27 -5.715 0)
        (effects (font (size 1.27 1.27)) (justify left top))
      )
      (property "Footprint" "Pauls_Footprints:LED_SK6812MINI-E_PLCC4_3.2x2.8mm_P1.75mm" (at 1.27 -7.62 0)
        (effects (font (size 1.27 1.27)) (justify left top) hide)
      )
      (property "Datasheet" "https://cdn-shop.adafruit.com/product-files/2686/SK6812MINI_REV.01-1-2.pdf" (at 2.54 -9.525 0)
        (effects (font (size 1.27 1.27)) (justify left top) hide)
      )
      (property "ki_keywords" "RGB LED NeoPixel Mini addressable" (at 0 0 0)
        (effects (font (size 1.27 1.27)) hide)
      )
      (property "ki_description" "RGB LED with integrated controller" (at 0 0 0)
        (effects (font (size 1.27 1.27)) hide)
      )
      (property "ki_fp_filters" "LED*SK6812MINI*PLCC*3.5x3.5mm*P1.75mm*" (at 0 0 0)
        (effects (font (size 1.27 1.27)) hide)
      )
      (symbol "SK6812MINI-E_0_0"
        (text "RGB" (at 2.286 -4.191 0)
          (effects (font (size 0.762 0.762)))
        )
      )
      (symbol "SK6812MINI-E_0_1"
        (polyline
          (pts
            (xy 1.27 -3.556)
            (xy 1.778 -3.556)
          )
          (stroke (width 0) (type default))
          (fill (type none))
        )
        (polyline
          (pts
            (xy 1.27 -2.54)
            (xy 1.778 -2.54)
          )
          (stroke (width 0) (type default))
          (fill (type none))
        )
        (polyline
          (pts
            (xy 4.699 -3.556)
            (xy 2.667 -3.556)
          )
          (stroke (width 0) (type default))
          (fill (type none))
        )
        (polyline
          (pts
            (xy 2.286 -2.54)
            (xy 1.27 -3.556)
            (xy 1.27 -3.048)
          )
          (stroke (width 0) (type default))
          (fill (type none))
        )
        (polyline
          (pts
            (xy 2.286 -1.524)
            (xy 1.27 -2.54)
            (xy 1.27 -2.032)
          )
          (stroke (width 0) (type default))
          (fill (type none))
        )
        (polyline
          (pts
            (xy 3.683 -1.016)
            (xy 3.683 -3.556)
            (xy 3.683 -4.064)
          )
          (stroke (width 0) (type default))
          (fill (type none))
        )
        (polyline
          (pts
            (xy 4.699 -1.524)
            (xy 2.667 -1.524)
            (xy 3.683 -3.556)
            (xy 4.699 -1.524)
          )
          (stroke (width 0) (type default))
          (fill (type none))
        )
        (rectangle (start 5.08 5.08) (end -5.08 -5.08)
          (stroke (width 0.254) (type default))
          (fill (type background))
        )
      )
      (symbol "SK6812MINI-E_1_1"
        (pin power_in line (at 0 7.62 270) (length 2.54)
          (name "VDD" (effects (font (size 1.27 1.27))))
          (number "1" (effects (font (size 1.27 1.27))))
        )
        (pin output line (at 7.62 0 180) (length 2.54)
          (name "DOUT" (effects (font (size 1.27 1.27))))
          (number "2" (effects (font (size 1.27 1.27))))
        )
        (pin power_in line (at 0 -7.62 90) (length 2.54)
          (name "VSS" (effects (font (size 1.27 1.27))))
          (number "3" (effects (font (size 1.27 1.27))))
        )
        (pin input line (at -7.62 0 0) (length 2.54)
          (name "DIN" (effects (font (size 1.27 1.27))))
          (number "4" (effects (font (size 1.27 1.27))))
        )
      )
    )
    (symbol "power:+3V3" (power) (pin_names (offset 0)) (in_bom yes) (on_board yes)
      (property "Reference" "#PWR" (at 0 -3.81 0)
        (effects (font (size 1.27 1.27)) hide)
      )
      (property "Value" "+3V3" (at 0 3.556 0)
        (effects (font (size 1.27 1.27)))
      )
      (property "Footprint" "" (at 0 0 0)
        (effects (font (size 1.27 1.27)) hide)
      )
      (property "Datasheet" "" (at 0 0 0)
        (effects (font (size 1.27 1.27)) hide)
      )
      (property "ki_keywords" "global power" (at 0 0 0)
        (effects (font (size 1.27 1.27)) hide)
      )
      (property "ki_description" "Power symbol creates a global label with name \"+3V3\"" (at 0 0 0)
        (effects (font (size 1.27 1.27)) hide)
      )
      (symbol "+3V3_0_1"
        (polyline
          (pts
            (xy -0.762 1.27)
            (xy 0 2.54)
          )
          (stroke (width 0) (type default))
          (fill (type none))
        )
        (polyline
          (pts
            (xy 0 0)
            (xy 0 2.54)
          )
          (stroke (width 0) (type default))
          (fill (type none))
        )
        (polyline
          (pts
            (xy 0 2.54)
            (xy 0.762 1.27)
          )
          (stroke (width 0) (type default))
          (fill (type none))
        )
      )
      (symbol "+3V3_1_1"
        (pin power_in line (at 0 0 90) (length 0) hide
          (name "+3V3" (effects (font (size 1.27 1.27))))
          (number "1" (effects (font (size 1.27 1.27))))
        )
      )
    )
    (symbol "power:GND" (power) (pin_names (offset 0)) (in_bom yes) (on_board yes)
      (property "Reference" "#PWR" (at 0 -6.35 0)
        (effects (font (size 1.27 1.27)) hide)
      )
      (property "Value" "GND" (at 0 -3.81 0)
        (effects (font (size 1.27 1.27)))
      )
      (property "Footprint" "" (at 0 0 0)
        (effects (font (size 1.27 1.27)) hide)
      )
      (property "Datasheet" "" (at 0 0 0)
        (effects (font (size 1.27 1.27)) hide)
      )
      (property "ki_keywords" "global power" (at 0 0 0)
        (effects (font (size 1.27 1.27)) hide)
      )
      (property "ki_description" "Power symbol creates a global label with name \"GND\" , ground" (at 0 0 0)
        (effects (font (size 1.27 1.27)) hide)
      )
      (symbol "GND_0_1"
        (polyline
          (pts
            (xy 0 0)
            (xy 0 -1.27)
            (xy 1.27 -1.27)
            (xy 0 -2.54)
            (xy -1.27 -1.27)
            (xy 0 -1.27)
          )
          (stroke (width 0) (type default))
          (fill (type none))
        )
      )
      (symbol "GND_1_1"
        (pin power_in line (at 0 0 270) (length 0) hide
          (name "GND" (effects (font (size 1.27 1.27))))
          (number "1" (effects (font (size 1.27 1.27))))
        )
      )
    )
  )

  (junction (at 144.018 108.458) (diameter 0) (color 0 0 0 0)
    (uuid 36149f39-b77b-4381-83a9-29d827e3ddbf)
  )
  (junction (at 195.326 72.644) (diameter 0) (color 0 0 0 0)
    (uuid 64936e3a-9fe6-40f3-a776-88c5a2ef8703)
  )
  (junction (at 140.208 107.188) (diameter 0) (color 0 0 0 0)
    (uuid 6da6b592-e908-4d7c-ab78-6f928c65fbfc)
  )
  (junction (at 212.09 72.644) (diameter 0) (color 0 0 0 0)
    (uuid 7eab1845-0fcc-48a7-87d9-cb7e35632296)
  )
  (junction (at 144.78 72.644) (diameter 0) (color 0 0 0 0)
    (uuid ea9c4463-6ae0-4860-a95b-9a4f53e165ad)
  )
  (junction (at 161.544 72.644) (diameter 0) (color 0 0 0 0)
    (uuid ef838f7b-330e-40f3-9bb6-d4d90732e260)
  )
  (junction (at 178.562 72.644) (diameter 0) (color 0 0 0 0)
    (uuid f50af65f-ed23-4dc8-8126-360a917df23e)
  )

  (no_connect (at 219.71 80.264) (uuid ab1a2455-151c-4566-98e9-262cf80a3eb2))

  (wire (pts (xy 145.034 141.478) (xy 144.78 141.478))
    (stroke (width 0) (type default))
    (uuid 07e771fe-12d4-4873-b25a-3d28c853b516)
  )
  (wire (pts (xy 134.62 73.914) (xy 134.62 72.644))
    (stroke (width 0) (type default))
    (uuid 07e824b8-839c-41d2-9056-cc6429ef76d5)
  )
  (wire (pts (xy 201.93 72.644) (xy 207.01 72.644))
    (stroke (width 0) (type default))
    (uuid 0a21bb0c-0c86-49cb-989c-9178bc15aaf6)
  )
  (wire (pts (xy 99.06 87.884) (xy 97.79 87.884))
    (stroke (width 0) (type default))
    (uuid 0dccab60-8593-4103-b627-8d53f649c9ca)
  )
  (wire (pts (xy 152.4 80.264) (xy 153.924 80.264))
    (stroke (width 0) (type default))
    (uuid 0f525329-95cb-4153-98d3-86fe9b00304a)
  )
  (wire (pts (xy 138.938 107.188) (xy 140.208 107.188))
    (stroke (width 0) (type default))
    (uuid 10b65d21-55c9-42ed-92bd-c0c0fe795b9e)
  )
  (wire (pts (xy 111.252 100.076) (xy 110.49 100.076))
    (stroke (width 0) (type default))
    (uuid 120d488d-3dcb-4901-8961-f3934b62171c)
  )
  (wire (pts (xy 131.318 107.188) (xy 131.318 108.458))
    (stroke (width 0) (type default))
    (uuid 12eee018-a4d6-43a5-8d9a-b74e23e9fb4c)
  )
  (wire (pts (xy 185.166 72.644) (xy 190.246 72.644))
    (stroke (width 0) (type default))
    (uuid 14f33c69-69a1-43db-afa7-47b27b7c50e9)
  )
  (wire (pts (xy 169.164 80.264) (xy 170.942 80.264))
    (stroke (width 0) (type default))
    (uuid 1a17f915-7cc2-47e2-9544-d52e433d1e7e)
  )
  (wire (pts (xy 201.93 73.914) (xy 201.93 72.644))
    (stroke (width 0) (type default))
    (uuid 1b0f8bd4-652e-44cf-a8cc-5776e5cc28eb)
  )
  (wire (pts (xy 178.562 71.374) (xy 178.562 72.644))
    (stroke (width 0) (type default))
    (uuid 1b1e59f2-7b12-44cc-a23d-b88094cf837d)
  )
  (wire (pts (xy 151.384 72.644) (xy 156.464 72.644))
    (stroke (width 0) (type default))
    (uuid 264e7449-4c49-4953-971e-fd4b817be689)
  )
  (wire (pts (xy 160.528 108.458) (xy 161.798 108.458))
    (stroke (width 0) (type default))
    (uuid 2a4d567c-b0a3-484c-99d8-25af30d57771)
  )
  (wire (pts (xy 195.326 87.884) (xy 195.326 88.646))
    (stroke (width 0) (type default))
    (uuid 31592c6e-aaa5-4e55-9975-de66e33bd7d7)
  )
  (wire (pts (xy 212.09 71.374) (xy 212.09 72.644))
    (stroke (width 0) (type default))
    (uuid 31edb59b-232e-43cc-8273-ec1010973950)
  )
  (wire (pts (xy 131.826 141.478) (xy 131.572 141.478))
    (stroke (width 0) (type default))
    (uuid 3e1acf13-044f-43c1-a348-06775b018a7d)
  )
  (wire (pts (xy 212.09 87.884) (xy 212.09 88.646))
    (stroke (width 0) (type default))
    (uuid 3f3ae9ad-7e8d-496e-8cc9-7aa0174fc7f2)
  )
  (wire (pts (xy 113.03 80.264) (xy 114.3 80.264))
    (stroke (width 0) (type default))
    (uuid 41354e46-d324-4d6d-8b24-4b3ca4e540ad)
  )
  (wire (pts (xy 135.89 80.264) (xy 137.16 80.264))
    (stroke (width 0) (type default))
    (uuid 43e67811-4550-49cd-82fd-f4cf12b23de5)
  )
  (wire (pts (xy 178.562 87.884) (xy 178.562 88.646))
    (stroke (width 0) (type default))
    (uuid 4ca03910-05fe-4f68-8f11-4817c887495a)
  )
  (wire (pts (xy 104.14 100.076) (xy 105.41 100.076))
    (stroke (width 0) (type default))
    (uuid 4d3881d1-7d90-4804-977c-3ab381213fef)
  )
  (wire (pts (xy 131.572 141.478) (xy 131.572 142.748))
    (stroke (width 0) (type default))
    (uuid 4e2d3736-aaed-46c1-b6bd-e13b2fc475d1)
  )
  (wire (pts (xy 144.018 108.458) (xy 145.288 108.458))
    (stroke (width 0) (type default))
    (uuid 4f848f63-186d-4196-a3b1-ad11eb4fdef1)
  )
  (wire (pts (xy 134.62 72.644) (xy 139.7 72.644))
    (stroke (width 0) (type default))
    (uuid 4fd696bd-8fd1-4334-acb4-a91fdec896d9)
  )
  (wire (pts (xy 99.06 82.804) (xy 100.33 82.804))
    (stroke (width 0) (type default))
    (uuid 51601078-a3f5-44b1-a4a0-632723434ade)
  )
  (wire (pts (xy 150.114 141.478) (xy 150.876 141.478))
    (stroke (width 0) (type default))
    (uuid 62e7c840-2cea-4657-8ac9-1e9157e4cbea)
  )
  (wire (pts (xy 113.03 82.804) (xy 114.3 82.804))
    (stroke (width 0) (type default))
    (uuid 6b0586c7-7bfd-4d8e-b267-3f899a8b9207)
  )
  (wire (pts (xy 142.748 107.188) (xy 142.748 108.458))
    (stroke (width 0) (type default))
    (uuid 6b892639-78b8-4543-87b0-ce6c2fb49c92)
  )
  (wire (pts (xy 168.402 73.914) (xy 168.402 72.644))
    (stroke (width 0) (type default))
    (uuid 709e3c51-2f62-47fb-bb82-b686604a9ec2)
  )
  (wire (pts (xy 195.326 71.374) (xy 195.326 72.644))
    (stroke (width 0) (type default))
    (uuid 72b17ae1-b386-4582-8253-6f8fb3d7de34)
  )
  (wire (pts (xy 161.544 71.374) (xy 161.544 72.644))
    (stroke (width 0) (type default))
    (uuid 72e4cc93-8b0c-4781-ae76-a6f94934ada8)
  )
  (wire (pts (xy 161.544 87.884) (xy 161.544 88.646))
    (stroke (width 0) (type default))
    (uuid 74fb058b-46af-4cd9-8f9e-9064bf35e729)
  )
  (wire (pts (xy 113.03 85.344) (xy 113.03 87.884))
    (stroke (width 0) (type default))
    (uuid 77b50111-3bf2-493a-867c-c3b0a614e985)
  )
  (wire (pts (xy 144.78 71.374) (xy 144.78 72.644))
    (stroke (width 0) (type default))
    (uuid 7d2df48a-00d2-4a79-864e-54c3abd06a7a)
  )
  (wire (pts (xy 142.748 108.458) (xy 144.018 108.458))
    (stroke (width 0) (type default))
    (uuid 7de2ea82-d7e3-4718-ac37-b4fa035f10f9)
  )
  (wire (pts (xy 161.798 110.998) (xy 161.798 114.808))
    (stroke (width 0) (type default))
    (uuid 8470bce9-26a9-4aff-9e76-7e4b24fa6000)
  )
  (wire (pts (xy 100.33 85.344) (xy 99.06 85.344))
    (stroke (width 0) (type default))
    (uuid 927e8e15-7e2e-43b9-b2b8-8b86b5a11b80)
  )
  (wire (pts (xy 202.946 80.264) (xy 204.47 80.264))
    (stroke (width 0) (type default))
    (uuid 97347bba-1256-4bc3-a87f-8dfc65eaf925)
  )
  (wire (pts (xy 150.876 141.478) (xy 150.876 142.748))
    (stroke (width 0) (type default))
    (uuid 977793a6-31a1-43b6-9f63-108688d7fc64)
  )
  (wire (pts (xy 136.906 141.478) (xy 137.668 141.478))
    (stroke (width 0) (type default))
    (uuid 9a364ebf-f54d-4626-a34f-6128e95df8bd)
  )
  (wire (pts (xy 168.402 72.644) (xy 173.482 72.644))
    (stroke (width 0) (type default))
    (uuid 9d024b2b-9ddd-46ab-bffa-40d96aa10a2f)
  )
  (wire (pts (xy 144.018 107.188) (xy 144.018 108.458))
    (stroke (width 0) (type default))
    (uuid a0948183-e7cd-4160-b843-152becafa766)
  )
  (wire (pts (xy 144.018 113.538) (xy 145.288 113.538))
    (stroke (width 0) (type default))
    (uuid a13a63e4-a715-4ebd-9fbe-dfd82f073994)
  )
  (wire (pts (xy 100.33 80.264) (xy 99.06 80.264))
    (stroke (width 0) (type default))
    (uuid a63826a5-b1aa-4590-8938-7a986f083e72)
  )
  (wire (pts (xy 104.14 99.06) (xy 104.14 100.076))
    (stroke (width 0) (type default))
    (uuid a89503bb-dde3-4301-82e1-844d3da94a90)
  )
  (wire (pts (xy 140.208 119.888) (xy 140.208 121.158))
    (stroke (width 0) (type default))
    (uuid b3ac289f-e1f9-4547-b4f4-c4fdb4676e0e)
  )
  (wire (pts (xy 185.166 73.914) (xy 185.166 72.644))
    (stroke (width 0) (type default))
    (uuid b8a4c659-d50d-4cf0-bdca-95663a500657)
  )
  (wire (pts (xy 111.252 101.092) (xy 111.252 100.076))
    (stroke (width 0) (type default))
    (uuid bbaf0279-957c-4f78-bc56-e7935b1eb14b)
  )
  (wire (pts (xy 151.384 73.914) (xy 151.384 72.644))
    (stroke (width 0) (type default))
    (uuid bec4b9d6-a99d-40fc-9d7f-a30e806695fb)
  )
  (wire (pts (xy 144.78 141.478) (xy 144.78 142.748))
    (stroke (width 0) (type default))
    (uuid bf925977-2912-44df-8479-3d83a68a26e9)
  )
  (wire (pts (xy 186.182 80.264) (xy 187.706 80.264))
    (stroke (width 0) (type default))
    (uuid c24eeec8-c1fe-4140-9f2a-d0801fcafd72)
  )
  (wire (pts (xy 160.528 110.998) (xy 161.798 110.998))
    (stroke (width 0) (type default))
    (uuid cc8f20fb-e1db-40a9-87cd-6e462300a886)
  )
  (wire (pts (xy 140.208 107.188) (xy 142.748 107.188))
    (stroke (width 0) (type default))
    (uuid dd341724-56e4-4304-8efb-d35852f12f61)
  )
  (wire (pts (xy 137.668 141.478) (xy 137.668 142.748))
    (stroke (width 0) (type default))
    (uuid e548b0a7-af3c-40b8-b189-02351aaa747e)
  )
  (wire (pts (xy 133.858 107.188) (xy 131.318 107.188))
    (stroke (width 0) (type default))
    (uuid f02768c5-d738-4436-b568-e2a6716e584a)
  )
  (wire (pts (xy 144.78 87.884) (xy 144.78 89.154))
    (stroke (width 0) (type default))
    (uuid f0b1c2d6-62d9-48fb-b6e2-5d9810e25b8b)
  )
  (wire (pts (xy 160.528 113.538) (xy 163.068 113.538))
    (stroke (width 0) (type default))
    (uuid f0fdd95a-7cf3-44f0-82d3-41e81022b189)
  )
  (wire (pts (xy 99.06 85.344) (xy 99.06 87.884))
    (stroke (width 0) (type default))
    (uuid f8c891c9-d06b-4f92-b198-1dfe87f2ede5)
  )

  (text "WP=1: RO\nWP=0: WR" (at 128.778 121.158 0)
    (effects (font (size 1.27 1.27)) (justify left bottom))
    (uuid 2d3ceb8f-cb49-440f-89bd-a52feab56664)
  )
  (text "i2C Add: 0x50" (at 146.558 126.492 0)
    (effects (font (size 1.27 1.27)) (justify left bottom))
    (uuid c26a9865-7e5c-4b55-b3ec-b6a428cb3a8b)
  )
  (text "256B i2C EEPROM" (at 142.748 123.063 0)
    (effects (font (size 1.27 1.27)) (justify left bottom))
    (uuid ddbf3835-4042-4686-9b35-ddf1a8133b86)
  )

  (global_label "SDA" (shape input) (at 99.06 82.804 180) (fields_autoplaced)
    (effects (font (size 1.27 1.27)) (justify right))
    (uuid 0742c83c-ae3d-4f78-a4a7-f471195af339)
    (property "Intersheetrefs" "${INTERSHEET_REFS}" (at 92.5067 82.804 0)
      (effects (font (size 1.27 1.27)) (justify right) hide)
    )
  )
  (global_label "IO2" (shape input) (at 114.3 80.264 0) (fields_autoplaced)
    (effects (font (size 1.27 1.27)) (justify left))
    (uuid 27dd9db9-113f-4142-adfa-671e705067d4)
    (property "Intersheetrefs" "${INTERSHEET_REFS}" (at 120.43 80.264 0)
      (effects (font (size 1.27 1.27)) (justify left) hide)
    )
  )
  (global_label "IO2" (shape input) (at 135.89 80.264 180) (fields_autoplaced)
    (effects (font (size 1.27 1.27)) (justify right))
    (uuid 305f7291-0f77-4178-9b8d-00197f12ba6b)
    (property "Intersheetrefs" "${INTERSHEET_REFS}" (at 129.76 80.264 0)
      (effects (font (size 1.27 1.27)) (justify right) hide)
    )
  )
  (global_label "SDA" (shape input) (at 161.798 108.458 0) (fields_autoplaced)
    (effects (font (size 1.27 1.27)) (justify left))
    (uuid ad49480a-bc40-4e29-92ae-c042fecd9638)
    (property "Intersheetrefs" "${INTERSHEET_REFS}" (at 168.3513 108.458 0)
      (effects (font (size 1.27 1.27)) (justify left) hide)
    )
  )
  (global_label "SCL" (shape input) (at 114.3 82.804 0) (fields_autoplaced)
    (effects (font (size 1.27 1.27)) (justify left))
    (uuid c607f676-fa9b-4aff-a503-f96d7a9387a1)
    (property "Intersheetrefs" "${INTERSHEET_REFS}" (at 120.7928 82.804 0)
      (effects (font (size 1.27 1.27)) (justify left) hide)
    )
  )
  (global_label "SCL" (shape input) (at 163.068 113.538 0) (fields_autoplaced)
    (effects (font (size 1.27 1.27)) (justify left))
    (uuid d0c0d574-b08d-44ee-881f-284f06d200b9)
    (property "Intersheetrefs" "${INTERSHEET_REFS}" (at 169.5608 113.538 0)
      (effects (font (size 1.27 1.27)) (justify left) hide)
    )
  )
  (global_label "IO1" (shape input) (at 99.06 80.264 180) (fields_autoplaced)
    (effects (font (size 1.27 1.27)) (justify right))
    (uuid d85c7f99-13cf-450c-880b-1b085dea274c)
    (property "Intersheetrefs" "${INTERSHEET_REFS}" (at 92.93 80.264 0)
      (effects (font (size 1.27 1.27)) (justify right) hide)
    )
  )

  (symbol (lib_id "Device:C_Small") (at 176.022 72.644 90) (unit 1)
    (in_bom yes) (on_board yes) (dnp no)
    (uuid 062403e7-399e-4db4-927c-dbe07f25ee1c)
    (property "Reference" "C4" (at 173.482 71.12 90)
      (effects (font (size 1.27 1.27)))
    )
    (property "Value" "100nF" (at 172.212 74.168 90)
      (effects (font (size 1.27 1.27)))
    )
    (property "Footprint" "Capacitor_SMD:C_0603_1608Metric" (at 176.0283 69.3618 90)
      (effects (font (size 1.27 1.27)) hide)
    )
    (property "Datasheet" "~" (at 176.022 72.644 0)
      (effects (font (size 1.27 1.27)) hide)
    )
    (pin "1" (uuid 496407ca-83e3-4531-a869-e2db8084474c))
    (pin "2" (uuid 653ebdf0-df3b-4be1-b5cb-c8a685ae6f22))
    (instances
      (project "SAO_Linux-Australia"
        (path "/25d732cf-5b86-4d80-b3e8-a940981daf01"
          (reference "C4") (unit 1)
        )
      )
    )
  )

  (symbol (lib_id "Device:C_Small") (at 159.004 72.644 90) (unit 1)
    (in_bom yes) (on_board yes) (dnp no)
    (uuid 0826666f-00e5-4f3e-b953-aff85e6b5952)
    (property "Reference" "C3" (at 156.464 71.12 90)
      (effects (font (size 1.27 1.27)))
    )
    (property "Value" "100nF" (at 155.194 74.168 90)
      (effects (font (size 1.27 1.27)))
    )
    (property "Footprint" "Capacitor_SMD:C_0603_1608Metric" (at 159.0103 69.3618 90)
      (effects (font (size 1.27 1.27)) hide)
    )
    (property "Datasheet" "~" (at 159.004 72.644 0)
      (effects (font (size 1.27 1.27)) hide)
    )
    (pin "1" (uuid 04ebd740-ea7b-428e-b6dd-b379169a727b))
    (pin "2" (uuid d32d6d3e-3d66-4a94-a3ca-d2b90604544c))
    (instances
      (project "SAO_Linux-Australia"
        (path "/25d732cf-5b86-4d80-b3e8-a940981daf01"
          (reference "C3") (unit 1)
        )
      )
    )
  )

  (symbol (lib_id "power:GND") (at 113.03 87.884 0) (unit 1)
    (in_bom yes) (on_board yes) (dnp no)
    (uuid 111a617d-f878-4359-b464-4a3f49e929b2)
    (property "Reference" "#PWR02" (at 113.03 94.234 0)
      (effects (font (size 1.27 1.27)) hide)
    )
    (property "Value" "GND" (at 115.57 91.44 0)
      (effects (font (size 1.27 1.27)))
    )
    (property "Footprint" "" (at 113.03 87.884 0)
      (effects (font (size 1.27 1.27)) hide)
    )
    (property "Datasheet" "" (at 113.03 87.884 0)
      (effects (font (size 1.27 1.27)) hide)
    )
    (pin "1" (uuid 4632d453-3bc9-4b0b-bc03-99c539ca9bc2))
    (instances
      (project "SAO_Linux-Australia"
        (path "/25d732cf-5b86-4d80-b3e8-a940981daf01"
          (reference "#PWR02") (unit 1)
        )
      )
    )
  )

  (symbol (lib_id "power:GND") (at 168.402 73.914 0) (unit 1)
    (in_bom yes) (on_board yes) (dnp no)
    (uuid 11d7cc06-e9fb-4d42-9475-a53b87f9fbe6)
    (property "Reference" "#PWR015" (at 168.402 80.264 0)
      (effects (font (size 1.27 1.27)) hide)
    )
    (property "Value" "GND" (at 170.942 76.708 0)
      (effects (font (size 1.27 1.27)))
    )
    (property "Footprint" "" (at 168.402 73.914 0)
      (effects (font (size 1.27 1.27)) hide)
    )
    (property "Datasheet" "" (at 168.402 73.914 0)
      (effects (font (size 1.27 1.27)) hide)
    )
    (pin "1" (uuid 26586cb6-f33c-4997-8239-cfeda0e34393))
    (instances
      (project "SAO_Linux-Australia"
        (path "/25d732cf-5b86-4d80-b3e8-a940981daf01"
          (reference "#PWR015") (unit 1)
        )
      )
    )
  )

  (symbol (lib_id "Pauls_Symbol_Library:SK6812MINI-E") (at 161.544 80.264 0) (unit 1)
    (in_bom yes) (on_board yes) (dnp no)
    (uuid 16392262-11ca-441d-9284-58f165f93571)
    (property "Reference" "D2" (at 164.084 86.614 0)
      (effects (font (size 1.27 1.27)))
    )
    (property "Value" "SK6812MINI-E" (at 162.814 94.996 0)
      (effects (font (size 1.27 1.27)))
    )
    (property "Footprint" "Pauls_KiCAD_Libraries:LED_SK6812MINI-E_no-hole_3.2x2.8mm_P1.75mm" (at 162.814 87.884 0)
      (effects (font (size 1.27 1.27)) (justify left top) hide)
    )
    (property "Datasheet" "https://cdn-shop.adafruit.com/product-files/2686/SK6812MINI_REV.01-1-2.pdf" (at 164.084 89.789 0)
      (effects (font (size 1.27 1.27)) (justify left top) hide)
    )
    (pin "1" (uuid 1fbd59c1-a125-4e31-971d-abdd0d5805da))
    (pin "2" (uuid b3322a9a-dbb1-44ea-856c-9013bdb18bb4))
    (pin "3" (uuid 9a2a3ac4-af4d-45b3-83ac-aa1cffaef5dd))
    (pin "4" (uuid e5c7fa02-0a6d-4061-9826-7d76916b1095))
    (instances
      (project "SAO_Linux-Australia"
        (path "/25d732cf-5b86-4d80-b3e8-a940981daf01"
          (reference "D2") (unit 1)
        )
      )
    )
  )

  (symbol (lib_id "power:GND") (at 137.668 142.748 0) (unit 1)
    (in_bom yes) (on_board yes) (dnp no)
    (uuid 18b90205-6dc6-438f-9d87-76ba06c82e14)
    (property "Reference" "#PWR06" (at 137.668 149.098 0)
      (effects (font (size 1.27 1.27)) hide)
    )
    (property "Value" "GND" (at 136.144 146.812 0)
      (effects (font (size 1.27 1.27)))
    )
    (property "Footprint" "" (at 137.668 142.748 0)
      (effects (font (size 1.27 1.27)) hide)
    )
    (property "Datasheet" "" (at 137.668 142.748 0)
      (effects (font (size 1.27 1.27)) hide)
    )
    (pin "1" (uuid 780ac5da-a2ff-4ba6-8f10-7085011c68f2))
    (instances
      (project "SAO_Linux-Australia"
        (path "/25d732cf-5b86-4d80-b3e8-a940981daf01"
          (reference "#PWR06") (unit 1)
        )
      )
    )
  )

  (symbol (lib_id "power:GND") (at 144.78 89.154 0) (unit 1)
    (in_bom yes) (on_board yes) (dnp no)
    (uuid 1a3f2fb3-1669-490a-8704-a48c3e6df7a4)
    (property "Reference" "#PWR010" (at 144.78 95.504 0)
      (effects (font (size 1.27 1.27)) hide)
    )
    (property "Value" "GND" (at 148.082 92.456 0)
      (effects (font (size 1.27 1.27)))
    )
    (property "Footprint" "" (at 144.78 89.154 0)
      (effects (font (size 1.27 1.27)) hide)
    )
    (property "Datasheet" "" (at 144.78 89.154 0)
      (effects (font (size 1.27 1.27)) hide)
    )
    (pin "1" (uuid cf56632e-015b-44ae-8b7f-a8c48b3b4f35))
    (instances
      (project "SAO_Linux-Australia"
        (path "/25d732cf-5b86-4d80-b3e8-a940981daf01"
          (reference "#PWR010") (unit 1)
        )
      )
    )
  )

  (symbol (lib_id "power:GND") (at 195.326 88.646 0) (unit 1)
    (in_bom yes) (on_board yes) (dnp no)
    (uuid 22e868a7-c412-4418-8e6b-69dc0655b884)
    (property "Reference" "#PWR020" (at 195.326 94.996 0)
      (effects (font (size 1.27 1.27)) hide)
    )
    (property "Value" "GND" (at 198.882 91.694 0)
      (effects (font (size 1.27 1.27)))
    )
    (property "Footprint" "" (at 195.326 88.646 0)
      (effects (font (size 1.27 1.27)) hide)
    )
    (property "Datasheet" "" (at 195.326 88.646 0)
      (effects (font (size 1.27 1.27)) hide)
    )
    (pin "1" (uuid 621534b2-0900-4e04-8d7b-63e82f65f17d))
    (instances
      (project "SAO_Linux-Australia"
        (path "/25d732cf-5b86-4d80-b3e8-a940981daf01"
          (reference "#PWR020") (unit 1)
        )
      )
    )
  )

  (symbol (lib_id "power:GND") (at 131.318 108.458 0) (unit 1)
    (in_bom yes) (on_board yes) (dnp no) (fields_autoplaced)
    (uuid 28a3ef58-bae8-479c-a1b4-dd3831cdf84d)
    (property "Reference" "#PWR03" (at 131.318 114.808 0)
      (effects (font (size 1.27 1.27)) hide)
    )
    (property "Value" "GND" (at 131.318 112.5911 0)
      (effects (font (size 1.27 1.27)))
    )
    (property "Footprint" "" (at 131.318 108.458 0)
      (effects (font (size 1.27 1.27)) hide)
    )
    (property "Datasheet" "" (at 131.318 108.458 0)
      (effects (font (size 1.27 1.27)) hide)
    )
    (pin "1" (uuid 14a6d992-9ece-470d-b1ed-559d0aace48e))
    (instances
      (project "SAO_Linux-Australia"
        (path "/25d732cf-5b86-4d80-b3e8-a940981daf01"
          (reference "#PWR03") (unit 1)
        )
      )
    )
  )

  (symbol (lib_id "Pauls_Symbol_Library:SK6812MINI-E") (at 212.09 80.264 0) (unit 1)
    (in_bom yes) (on_board yes) (dnp no)
    (uuid 28d20551-a64e-4a8c-8d1f-cb68b9b5023d)
    (property "Reference" "D5" (at 214.63 86.614 0)
      (effects (font (size 1.27 1.27)))
    )
    (property "Value" "SK6812MINI-E" (at 213.106 94.996 0)
      (effects (font (size 1.27 1.27)))
    )
    (property "Footprint" "Pauls_KiCAD_Libraries:LED_SK6812MINI-E_no-hole_3.2x2.8mm_P1.75mm" (at 213.36 87.884 0)
      (effects (font (size 1.27 1.27)) (justify left top) hide)
    )
    (property "Datasheet" "https://cdn-shop.adafruit.com/product-files/2686/SK6812MINI_REV.01-1-2.pdf" (at 214.63 89.789 0)
      (effects (font (size 1.27 1.27)) (justify left top) hide)
    )
    (pin "1" (uuid dfa5893d-b058-4c15-a599-033b63ea85b9))
    (pin "2" (uuid 52f407e5-4ea6-43dc-b776-1022208aa61a))
    (pin "3" (uuid 00f1c8d6-daf4-4b2f-9da5-48bf0c41d738))
    (pin "4" (uuid a9cba913-a8ac-4df4-bf11-d24ce1bf6012))
    (instances
      (project "SAO_Linux-Australia"
        (path "/25d732cf-5b86-4d80-b3e8-a940981daf01"
          (reference "D5") (unit 1)
        )
      )
    )
  )

  (symbol (lib_id "power:+3V3") (at 144.018 107.188 0) (unit 1)
    (in_bom yes) (on_board yes) (dnp no)
    (uuid 2cacb80d-f50c-460e-a722-29961481754f)
    (property "Reference" "#PWR08" (at 144.018 110.998 0)
      (effects (font (size 1.27 1.27)) hide)
    )
    (property "Value" "+3V3" (at 143.383 103.378 0)
      (effects (font (size 1.27 1.27)))
    )
    (property "Footprint" "" (at 144.018 107.188 0)
      (effects (font (size 1.27 1.27)) hide)
    )
    (property "Datasheet" "" (at 144.018 107.188 0)
      (effects (font (size 1.27 1.27)) hide)
    )
    (pin "1" (uuid 8fc665fb-157a-4604-a6a1-d089ce6058b6))
    (instances
      (project "SAO_Linux-Australia"
        (path "/25d732cf-5b86-4d80-b3e8-a940981daf01"
          (reference "#PWR08") (unit 1)
        )
      )
    )
  )

  (symbol (lib_id "power:GND") (at 178.562 88.646 0) (unit 1)
    (in_bom yes) (on_board yes) (dnp no)
    (uuid 2f1a15e7-7388-4974-addf-2bc810e3db24)
    (property "Reference" "#PWR017" (at 178.562 94.996 0)
      (effects (font (size 1.27 1.27)) hide)
    )
    (property "Value" "GND" (at 181.61 91.694 0)
      (effects (font (size 1.27 1.27)))
    )
    (property "Footprint" "" (at 178.562 88.646 0)
      (effects (font (size 1.27 1.27)) hide)
    )
    (property "Datasheet" "" (at 178.562 88.646 0)
      (effects (font (size 1.27 1.27)) hide)
    )
    (pin "1" (uuid f7d683d7-85e9-4da6-9952-14681c10177f))
    (instances
      (project "SAO_Linux-Australia"
        (path "/25d732cf-5b86-4d80-b3e8-a940981daf01"
          (reference "#PWR017") (unit 1)
        )
      )
    )
  )

  (symbol (lib_id "Pauls_Schm_Library:K24C02") (at 152.908 110.998 180) (unit 1)
    (in_bom yes) (on_board yes) (dnp no)
    (uuid 31b42083-525b-418b-bb51-d0a53f58fd1d)
    (property "Reference" "U1" (at 152.908 105.283 0)
      (effects (font (size 1.27 1.27)))
    )
    (property "Value" "K24C02" (at 152.908 116.713 0)
      (effects (font (size 1.27 1.27)))
    )
    (property "Footprint" "Package_TO_SOT_SMD:SOT-23-5" (at 152.908 116.078 0)
      (effects (font (size 1.27 1.27)) hide)
    )
    (property "Datasheet" "" (at 152.908 116.078 0)
      (effects (font (size 1.27 1.27)) hide)
    )
    (pin "1" (uuid 2a1067e7-e31f-4172-b1b2-4849e4219f0e))
    (pin "2" (uuid 64d6e64d-13f8-41f3-8c85-ca39f1ad9d4b))
    (pin "3" (uuid a3c65788-5976-4e11-bde5-31a5f684bc9e))
    (pin "4" (uuid 52e4f2eb-221e-4d0b-ae6a-7fd1620e2d90))
    (pin "5" (uuid 66bb09c7-204a-4e69-8b4f-4e49717df686))
    (instances
      (project "SAO_Linux-Australia"
        (path "/25d732cf-5b86-4d80-b3e8-a940981daf01"
          (reference "U1") (unit 1)
        )
      )
    )
  )

  (symbol (lib_id "Device:R_Small") (at 134.366 141.478 90) (unit 1)
    (in_bom yes) (on_board yes) (dnp no)
    (uuid 39265402-62fe-4426-9a99-24510a2a4bca)
    (property "Reference" "R1" (at 134.62 139.7 90)
      (effects (font (size 1.27 1.27)))
    )
    (property "Value" "0R" (at 134.366 143.256 90)
      (effects (font (size 1.27 1.27)))
    )
    (property "Footprint" "Resistor_SMD:R_0805_2012Metric" (at 134.366 141.478 0)
      (effects (font (size 1.27 1.27)) hide)
    )
    (property "Datasheet" "~" (at 134.366 141.478 0)
      (effects (font (size 1.27 1.27)) hide)
    )
    (pin "1" (uuid 55842a47-8a90-4451-802e-7e6e4d7e82bf))
    (pin "2" (uuid fe9f08f8-94bb-4619-975f-29ef1eae3d07))
    (instances
      (project "SAO_Linux-Australia"
        (path "/25d732cf-5b86-4d80-b3e8-a940981daf01"
          (reference "R1") (unit 1)
        )
      )
    )
  )

  (symbol (lib_id "Connector_Generic:Conn_02x03_Odd_Even") (at 105.41 82.804 0) (mirror x) (unit 1)
    (in_bom yes) (on_board yes) (dnp no)
    (uuid 47f71721-9136-46f8-86c0-371bcc0489ed)
    (property "Reference" "J1" (at 106.68 90.7583 0)
      (effects (font (size 1.27 1.27)))
    )
    (property "Value" "SMD" (at 106.68 88.3341 0)
      (effects (font (size 1.27 1.27)))
    )
    (property "Footprint" "Connector_PinHeader_2.54mm:PinHeader_2x03_P2.54mm_Vertical_SMD" (at 105.41 82.804 0)
      (effects (font (size 1.27 1.27)) hide)
    )
    (property "Datasheet" "~" (at 105.41 82.804 0)
      (effects (font (size 1.27 1.27)) hide)
    )
    (pin "1" (uuid 7f4df1e7-c764-44bd-b6bd-ef0d1f43af24))
    (pin "2" (uuid faeb2316-3f79-413e-9b90-63f960ea9a5b))
    (pin "3" (uuid 6002a37c-f366-4e9a-8c5c-7b9cb660f867))
    (pin "4" (uuid 2db09294-9411-4bf2-9fb4-fa3218efea00))
    (pin "5" (uuid deb3b010-9f67-4c6e-a8b7-b458de2797a9))
    (pin "6" (uuid c007273a-82ed-4a49-abe1-1db151d4a79c))
    (instances
      (project "SAO_Linux-Australia"
        (path "/25d732cf-5b86-4d80-b3e8-a940981daf01"
          (reference "J1") (unit 1)
        )
      )
    )
  )

  (symbol (lib_id "Pauls_Symbol_Library:SK6812MINI-E") (at 178.562 80.264 0) (unit 1)
    (in_bom yes) (on_board yes) (dnp no)
    (uuid 4a9a12ac-4683-4625-b2b6-b9bd2f1fd198)
    (property "Reference" "D3" (at 181.102 86.614 0)
      (effects (font (size 1.27 1.27)))
    )
    (property "Value" "SK6812MINI-E" (at 179.578 94.996 0)
      (effects (font (size 1.27 1.27)))
    )
    (property "Footprint" "Pauls_KiCAD_Libraries:LED_SK6812MINI-E_no-hole_3.2x2.8mm_P1.75mm" (at 179.832 87.884 0)
      (effects (font (size 1.27 1.27)) (justify left top) hide)
    )
    (property "Datasheet" "https://cdn-shop.adafruit.com/product-files/2686/SK6812MINI_REV.01-1-2.pdf" (at 181.102 89.789 0)
      (effects (font (size 1.27 1.27)) (justify left top) hide)
    )
    (pin "1" (uuid 9a4838b7-c1e2-4262-a22d-824bfec7f657))
    (pin "2" (uuid bc224438-eeb4-49a3-8511-6ba979f72842))
    (pin "3" (uuid 6bf52f6d-5730-4acf-8300-df6011172a1f))
    (pin "4" (uuid e71cc1b9-01c0-4cc9-98dc-597c53f13509))
    (instances
      (project "SAO_Linux-Australia"
        (path "/25d732cf-5b86-4d80-b3e8-a940981daf01"
          (reference "D3") (unit 1)
        )
      )
    )
  )

  (symbol (lib_id "Pauls_Symbol_Library:SK6812MINI-E") (at 195.326 80.264 0) (unit 1)
    (in_bom yes) (on_board yes) (dnp no)
    (uuid 4d141b4a-7c0b-4a36-b8a1-cd60883a6822)
    (property "Reference" "D4" (at 197.866 86.614 0)
      (effects (font (size 1.27 1.27)))
    )
    (property "Value" "SK6812MINI-E" (at 196.342 94.996 0)
      (effects (font (size 1.27 1.27)))
    )
    (property "Footprint" "Pauls_KiCAD_Libraries:LED_SK6812MINI-E_no-hole_3.2x2.8mm_P1.75mm" (at 196.596 87.884 0)
      (effects (font (size 1.27 1.27)) (justify left top) hide)
    )
    (property "Datasheet" "https://cdn-shop.adafruit.com/product-files/2686/SK6812MINI_REV.01-1-2.pdf" (at 197.866 89.789 0)
      (effects (font (size 1.27 1.27)) (justify left top) hide)
    )
    (pin "1" (uuid c4dd6dbd-9eba-49e5-8227-d3d06d5b59dd))
    (pin "2" (uuid a8625f2d-1dc7-4d0f-94d8-30e1568768d3))
    (pin "3" (uuid b485bd06-f1b4-42cd-a324-0b2b52a68f1c))
    (pin "4" (uuid 9fd4b766-aae9-44d2-90f5-dea9061cd4d5))
    (instances
      (project "SAO_Linux-Australia"
        (path "/25d732cf-5b86-4d80-b3e8-a940981daf01"
          (reference "D4") (unit 1)
        )
      )
    )
  )

  (symbol (lib_id "power:GND") (at 212.09 88.646 0) (unit 1)
    (in_bom yes) (on_board yes) (dnp no)
    (uuid 57ee2c8b-90d4-410a-9ea1-ac2c82970f73)
    (property "Reference" "#PWR023" (at 212.09 94.996 0)
      (effects (font (size 1.27 1.27)) hide)
    )
    (property "Value" "GND" (at 215.138 91.694 0)
      (effects (font (size 1.27 1.27)))
    )
    (property "Footprint" "" (at 212.09 88.646 0)
      (effects (font (size 1.27 1.27)) hide)
    )
    (property "Datasheet" "" (at 212.09 88.646 0)
      (effects (font (size 1.27 1.27)) hide)
    )
    (pin "1" (uuid 6a8d5b4b-0b98-4fc7-93a4-d434dff0be9b))
    (instances
      (project "SAO_Linux-Australia"
        (path "/25d732cf-5b86-4d80-b3e8-a940981daf01"
          (reference "#PWR023") (unit 1)
        )
      )
    )
  )

  (symbol (lib_id "power:+3V3") (at 212.09 71.374 0) (unit 1)
    (in_bom yes) (on_board yes) (dnp no)
    (uuid 581a1bfd-ba21-4381-b28c-4b97a61c4566)
    (property "Reference" "#PWR022" (at 212.09 75.184 0)
      (effects (font (size 1.27 1.27)) hide)
    )
    (property "Value" "+3V3" (at 213.614 67.818 0)
      (effects (font (size 1.27 1.27)))
    )
    (property "Footprint" "" (at 212.09 71.374 0)
      (effects (font (size 1.27 1.27)) hide)
    )
    (property "Datasheet" "" (at 212.09 71.374 0)
      (effects (font (size 1.27 1.27)) hide)
    )
    (pin "1" (uuid 7161f674-0a70-4a81-b6a9-087315aaf635))
    (instances
      (project "SAO_Linux-Australia"
        (path "/25d732cf-5b86-4d80-b3e8-a940981daf01"
          (reference "#PWR022") (unit 1)
        )
      )
    )
  )

  (symbol (lib_id "Device:C_Small") (at 107.95 100.076 90) (unit 1)
    (in_bom yes) (on_board yes) (dnp no)
    (uuid 60d64756-4893-4468-b100-2d5386c1e943)
    (property "Reference" "C7" (at 107.95 97.028 90)
      (effects (font (size 1.27 1.27)))
    )
    (property "Value" "10uF" (at 107.442 103.124 90)
      (effects (font (size 1.27 1.27)))
    )
    (property "Footprint" "Capacitor_SMD:C_0603_1608Metric" (at 107.9563 96.7938 90)
      (effects (font (size 1.27 1.27)) hide)
    )
    (property "Datasheet" "~" (at 107.95 100.076 0)
      (effects (font (size 1.27 1.27)) hide)
    )
    (pin "1" (uuid 28eebc94-2155-468e-b067-850238ab51ad))
    (pin "2" (uuid 6eb8ca85-01f0-4a98-855d-bc8d9865a042))
    (instances
      (project "SAO_Linux-Australia"
        (path "/25d732cf-5b86-4d80-b3e8-a940981daf01"
          (reference "C7") (unit 1)
        )
      )
    )
  )

  (symbol (lib_id "power:GND") (at 111.252 101.092 0) (unit 1)
    (in_bom yes) (on_board yes) (dnp no)
    (uuid 6c7a1129-3088-4565-990a-3981a54a515d)
    (property "Reference" "#PWR024" (at 111.252 107.442 0)
      (effects (font (size 1.27 1.27)) hide)
    )
    (property "Value" "GND" (at 113.792 104.648 0)
      (effects (font (size 1.27 1.27)))
    )
    (property "Footprint" "" (at 111.252 101.092 0)
      (effects (font (size 1.27 1.27)) hide)
    )
    (property "Datasheet" "" (at 111.252 101.092 0)
      (effects (font (size 1.27 1.27)) hide)
    )
    (pin "1" (uuid 5a449b94-f0c4-430b-93df-7299c44b9ff6))
    (instances
      (project "SAO_Linux-Australia"
        (path "/25d732cf-5b86-4d80-b3e8-a940981daf01"
          (reference "#PWR024") (unit 1)
        )
      )
    )
  )

  (symbol (lib_id "power:+3V3") (at 97.79 87.884 0) (unit 1)
    (in_bom yes) (on_board yes) (dnp no)
    (uuid 6d490a16-247b-4282-823b-9c0319dc5b7d)
    (property "Reference" "#PWR01" (at 97.79 91.694 0)
      (effects (font (size 1.27 1.27)) hide)
    )
    (property "Value" "+3V3" (at 94.234 85.598 0)
      (effects (font (size 1.27 1.27)))
    )
    (property "Footprint" "" (at 97.79 87.884 0)
      (effects (font (size 1.27 1.27)) hide)
    )
    (property "Datasheet" "" (at 97.79 87.884 0)
      (effects (font (size 1.27 1.27)) hide)
    )
    (pin "1" (uuid 0eb04280-135f-49a9-84d7-1eb12348c0e8))
    (instances
      (project "SAO_Linux-Australia"
        (path "/25d732cf-5b86-4d80-b3e8-a940981daf01"
          (reference "#PWR01") (unit 1)
        )
      )
    )
  )

  (symbol (lib_id "Device:C_Small") (at 192.786 72.644 90) (unit 1)
    (in_bom yes) (on_board yes) (dnp no)
    (uuid 78a35a16-fd16-42bb-a827-d3f6cdb10e0c)
    (property "Reference" "C5" (at 190.246 71.12 90)
      (effects (font (size 1.27 1.27)))
    )
    (property "Value" "100nF" (at 188.976 74.168 90)
      (effects (font (size 1.27 1.27)))
    )
    (property "Footprint" "Capacitor_SMD:C_0603_1608Metric" (at 192.7923 69.3618 90)
      (effects (font (size 1.27 1.27)) hide)
    )
    (property "Datasheet" "~" (at 192.786 72.644 0)
      (effects (font (size 1.27 1.27)) hide)
    )
    (pin "1" (uuid 28e98eb7-a3da-4ce1-bd7a-9610a7fb9e53))
    (pin "2" (uuid 31554203-5081-4048-954f-8a286dc3eb4c))
    (instances
      (project "SAO_Linux-Australia"
        (path "/25d732cf-5b86-4d80-b3e8-a940981daf01"
          (reference "C5") (unit 1)
        )
      )
    )
  )

  (symbol (lib_id "Device:R_Small") (at 147.574 141.478 90) (unit 1)
    (in_bom yes) (on_board yes) (dnp no)
    (uuid 7d81bc75-e303-41ae-ae37-df0fe41e17af)
    (property "Reference" "R2" (at 147.828 139.7 90)
      (effects (font (size 1.27 1.27)))
    )
    (property "Value" "0R" (at 147.574 143.256 90)
      (effects (font (size 1.27 1.27)))
    )
    (property "Footprint" "Resistor_SMD:R_0805_2012Metric" (at 147.574 141.478 0)
      (effects (font (size 1.27 1.27)) hide)
    )
    (property "Datasheet" "~" (at 147.574 141.478 0)
      (effects (font (size 1.27 1.27)) hide)
    )
    (pin "1" (uuid 6aa91b04-d815-4aa8-90ef-fe91d5a597c7))
    (pin "2" (uuid eaada883-43d7-466b-959d-8b824c89180a))
    (instances
      (project "SAO_Linux-Australia"
        (path "/25d732cf-5b86-4d80-b3e8-a940981daf01"
          (reference "R2") (unit 1)
        )
      )
    )
  )

  (symbol (lib_id "Device:C_Small") (at 209.55 72.644 90) (unit 1)
    (in_bom yes) (on_board yes) (dnp no)
    (uuid 8882b641-bc2d-4359-8cb9-0d6cbf0a0a9a)
    (property "Reference" "C6" (at 207.01 71.12 90)
      (effects (font (size 1.27 1.27)))
    )
    (property "Value" "100nF" (at 205.74 74.168 90)
      (effects (font (size 1.27 1.27)))
    )
    (property "Footprint" "Capacitor_SMD:C_0603_1608Metric" (at 209.5563 69.3618 90)
      (effects (font (size 1.27 1.27)) hide)
    )
    (property "Datasheet" "~" (at 209.55 72.644 0)
      (effects (font (size 1.27 1.27)) hide)
    )
    (pin "1" (uuid 5fa0c8b7-7cb3-4522-8fb4-92d0e4637f47))
    (pin "2" (uuid fefc893e-4435-48cb-a13f-8aaa92bf64eb))
    (instances
      (project "SAO_Linux-Australia"
        (path "/25d732cf-5b86-4d80-b3e8-a940981daf01"
          (reference "C6") (unit 1)
        )
      )
    )
  )

  (symbol (lib_id "power:GND") (at 161.544 88.646 0) (unit 1)
    (in_bom yes) (on_board yes) (dnp no)
    (uuid 8c445df3-61c5-4021-8a73-5f7290914499)
    (property "Reference" "#PWR013" (at 161.544 94.996 0)
      (effects (font (size 1.27 1.27)) hide)
    )
    (property "Value" "GND" (at 164.592 91.948 0)
      (effects (font (size 1.27 1.27)))
    )
    (property "Footprint" "" (at 161.544 88.646 0)
      (effects (font (size 1.27 1.27)) hide)
    )
    (property "Datasheet" "" (at 161.544 88.646 0)
      (effects (font (size 1.27 1.27)) hide)
    )
    (pin "1" (uuid f19ad569-483e-4823-9cec-922154391bce))
    (instances
      (project "SAO_Linux-Australia"
        (path "/25d732cf-5b86-4d80-b3e8-a940981daf01"
          (reference "#PWR013") (unit 1)
        )
      )
    )
  )

  (symbol (lib_id "Device:C_Small") (at 136.398 107.188 90) (unit 1)
    (in_bom yes) (on_board yes) (dnp no)
    (uuid 8f19aaf1-7da4-490a-87fd-443dd5bae74a)
    (property "Reference" "C1" (at 133.858 105.664 90)
      (effects (font (size 1.27 1.27)))
    )
    (property "Value" "100nF" (at 140.208 105.918 90)
      (effects (font (size 1.27 1.27)))
    )
    (property "Footprint" "Capacitor_SMD:C_0603_1608Metric" (at 136.4043 103.9058 90)
      (effects (font (size 1.27 1.27)) hide)
    )
    (property "Datasheet" "~" (at 136.398 107.188 0)
      (effects (font (size 1.27 1.27)) hide)
    )
    (pin "1" (uuid 99af1aeb-e7b5-4c42-97fb-03de9175e1a8))
    (pin "2" (uuid e47e0e3d-254f-45ce-ab56-459640b0a7d9))
    (instances
      (project "SAO_Linux-Australia"
        (path "/25d732cf-5b86-4d80-b3e8-a940981daf01"
          (reference "C1") (unit 1)
        )
      )
    )
  )

  (symbol (lib_id "power:+3V3") (at 195.326 71.374 0) (unit 1)
    (in_bom yes) (on_board yes) (dnp no)
    (uuid 9671f082-c3a6-4d07-9ae4-498559b01c2e)
    (property "Reference" "#PWR019" (at 195.326 75.184 0)
      (effects (font (size 1.27 1.27)) hide)
    )
    (property "Value" "+3V3" (at 196.85 67.818 0)
      (effects (font (size 1.27 1.27)))
    )
    (property "Footprint" "" (at 195.326 71.374 0)
      (effects (font (size 1.27 1.27)) hide)
    )
    (property "Datasheet" "" (at 195.326 71.374 0)
      (effects (font (size 1.27 1.27)) hide)
    )
    (pin "1" (uuid 135e44cf-eb78-4e8b-bd66-8b21c3401db6))
    (instances
      (project "SAO_Linux-Australia"
        (path "/25d732cf-5b86-4d80-b3e8-a940981daf01"
          (reference "#PWR019") (unit 1)
        )
      )
    )
  )

  (symbol (lib_id "power:GND") (at 144.78 142.748 0) (unit 1)
    (in_bom yes) (on_board yes) (dnp no)
    (uuid 97243a9c-e078-42f3-8fe2-049684e5755b)
    (property "Reference" "#PWR026" (at 144.78 149.098 0)
      (effects (font (size 1.27 1.27)) hide)
    )
    (property "Value" "GND" (at 143.256 146.812 0)
      (effects (font (size 1.27 1.27)))
    )
    (property "Footprint" "" (at 144.78 142.748 0)
      (effects (font (size 1.27 1.27)) hide)
    )
    (property "Datasheet" "" (at 144.78 142.748 0)
      (effects (font (size 1.27 1.27)) hide)
    )
    (pin "1" (uuid c384c26e-db45-4c56-8b62-ae9cca317107))
    (instances
      (project "SAO_Linux-Australia"
        (path "/25d732cf-5b86-4d80-b3e8-a940981daf01"
          (reference "#PWR026") (unit 1)
        )
      )
    )
  )

  (symbol (lib_id "power:+3V3") (at 104.14 99.06 0) (unit 1)
    (in_bom yes) (on_board yes) (dnp no)
    (uuid 9ac70204-254e-42a0-827c-d3fdf9f333cd)
    (property "Reference" "#PWR025" (at 104.14 102.87 0)
      (effects (font (size 1.27 1.27)) hide)
    )
    (property "Value" "+3V3" (at 100.584 96.774 0)
      (effects (font (size 1.27 1.27)))
    )
    (property "Footprint" "" (at 104.14 99.06 0)
      (effects (font (size 1.27 1.27)) hide)
    )
    (property "Datasheet" "" (at 104.14 99.06 0)
      (effects (font (size 1.27 1.27)) hide)
    )
    (pin "1" (uuid 36c4d3f9-3436-43ad-ac4a-cf294b5256f8))
    (instances
      (project "SAO_Linux-Australia"
        (path "/25d732cf-5b86-4d80-b3e8-a940981daf01"
          (reference "#PWR025") (unit 1)
        )
      )
    )
  )

  (symbol (lib_id "Pauls_Symbol_Library:SK6812MINI-E") (at 144.78 80.264 0) (unit 1)
    (in_bom yes) (on_board yes) (dnp no)
    (uuid a1c3fe04-c07f-41c4-a153-5ca99861b198)
    (property "Reference" "D1" (at 147.32 86.614 0)
      (effects (font (size 1.27 1.27)))
    )
    (property "Value" "SK6812MINI-E" (at 144.526 94.996 0)
      (effects (font (size 1.27 1.27)))
    )
    (property "Footprint" "Pauls_KiCAD_Libraries:LED_SK6812MINI-E_no-hole_3.2x2.8mm_P1.75mm" (at 146.05 87.884 0)
      (effects (font (size 1.27 1.27)) (justify left top) hide)
    )
    (property "Datasheet" "https://cdn-shop.adafruit.com/product-files/2686/SK6812MINI_REV.01-1-2.pdf" (at 147.32 89.789 0)
      (effects (font (size 1.27 1.27)) (justify left top) hide)
    )
    (pin "1" (uuid 459d52ff-4060-4d2c-9054-f06f2e1c63ba))
    (pin "2" (uuid 813a4737-b6cb-4321-830c-1b769f7e9929))
    (pin "3" (uuid 94ff9d5c-7609-4113-b3b1-1cf3dcbc789b))
    (pin "4" (uuid 1318303f-457c-4d38-ba66-5de1e83b3e50))
    (instances
      (project "SAO_Linux-Australia"
        (path "/25d732cf-5b86-4d80-b3e8-a940981daf01"
          (reference "D1") (unit 1)
        )
      )
    )
  )

  (symbol (lib_id "power:GND") (at 151.384 73.914 0) (unit 1)
    (in_bom yes) (on_board yes) (dnp no)
    (uuid a4b32e3e-9ebf-42af-8dd7-cb0cb02896de)
    (property "Reference" "#PWR011" (at 151.384 80.264 0)
      (effects (font (size 1.27 1.27)) hide)
    )
    (property "Value" "GND" (at 153.924 76.708 0)
      (effects (font (size 1.27 1.27)))
    )
    (property "Footprint" "" (at 151.384 73.914 0)
      (effects (font (size 1.27 1.27)) hide)
    )
    (property "Datasheet" "" (at 151.384 73.914 0)
      (effects (font (size 1.27 1.27)) hide)
    )
    (pin "1" (uuid 13eafbcd-eb55-4d2a-a74c-9a0ed0293e65))
    (instances
      (project "SAO_Linux-Australia"
        (path "/25d732cf-5b86-4d80-b3e8-a940981daf01"
          (reference "#PWR011") (unit 1)
        )
      )
    )
  )

  (symbol (lib_id "power:+3V3") (at 144.78 71.374 0) (unit 1)
    (in_bom yes) (on_board yes) (dnp no)
    (uuid acf8c289-bee1-4a4a-87ff-2c72aca2f850)
    (property "Reference" "#PWR09" (at 144.78 75.184 0)
      (effects (font (size 1.27 1.27)) hide)
    )
    (property "Value" "+3V3" (at 146.304 67.818 0)
      (effects (font (size 1.27 1.27)))
    )
    (property "Footprint" "" (at 144.78 71.374 0)
      (effects (font (size 1.27 1.27)) hide)
    )
    (property "Datasheet" "" (at 144.78 71.374 0)
      (effects (font (size 1.27 1.27)) hide)
    )
    (pin "1" (uuid b5727f41-977d-470b-aa98-98e56731e44f))
    (instances
      (project "SAO_Linux-Australia"
        (path "/25d732cf-5b86-4d80-b3e8-a940981daf01"
          (reference "#PWR09") (unit 1)
        )
      )
    )
  )

  (symbol (lib_id "power:+3V3") (at 178.562 71.374 0) (unit 1)
    (in_bom yes) (on_board yes) (dnp no)
    (uuid b6e453ce-b2be-4bbd-a626-885b8c51f8bd)
    (property "Reference" "#PWR016" (at 178.562 75.184 0)
      (effects (font (size 1.27 1.27)) hide)
    )
    (property "Value" "+3V3" (at 180.086 67.818 0)
      (effects (font (size 1.27 1.27)))
    )
    (property "Footprint" "" (at 178.562 71.374 0)
      (effects (font (size 1.27 1.27)) hide)
    )
    (property "Datasheet" "" (at 178.562 71.374 0)
      (effects (font (size 1.27 1.27)) hide)
    )
    (pin "1" (uuid ffddaded-b886-40fd-96b5-83c57f53ca65))
    (instances
      (project "SAO_Linux-Australia"
        (path "/25d732cf-5b86-4d80-b3e8-a940981daf01"
          (reference "#PWR016") (unit 1)
        )
      )
    )
  )

  (symbol (lib_id "Jumper:Jumper_3_Bridged12") (at 140.208 113.538 90) (unit 1)
    (in_bom yes) (on_board yes) (dnp no)
    (uuid be13bb78-f61f-456a-8ce8-f59d1b2aca92)
    (property "Reference" "JP1" (at 139.573 111.633 90)
      (effects (font (size 1.27 1.27)) (justify left))
    )
    (property "Value" "Jumper_3_Bridged12" (at 137.668 114.808 90)
      (effects (font (size 1.27 1.27)) (justify left) hide)
    )
    (property "Footprint" "Jumper:SolderJumper-3_P1.3mm_Bridged12_RoundedPad1.0x1.5mm" (at 140.208 113.538 0)
      (effects (font (size 1.27 1.27)) hide)
    )
    (property "Datasheet" "~" (at 140.208 113.538 0)
      (effects (font (size 1.27 1.27)) hide)
    )
    (pin "1" (uuid 9f9e9fc3-cd18-4896-95bb-edaec67c7aa8))
    (pin "2" (uuid 427fb1c6-9c67-41c6-969e-0dd8d6360456))
    (pin "3" (uuid b6680538-ce4a-48c7-9cd9-9a07e1221c32))
    (instances
      (project "SAO_Linux-Australia"
        (path "/25d732cf-5b86-4d80-b3e8-a940981daf01"
          (reference "JP1") (unit 1)
        )
      )
    )
  )

  (symbol (lib_id "power:GND") (at 201.93 73.914 0) (unit 1)
    (in_bom yes) (on_board yes) (dnp no)
    (uuid c9480f76-3652-4414-bfdc-52d3dffc2079)
    (property "Reference" "#PWR021" (at 201.93 80.264 0)
      (effects (font (size 1.27 1.27)) hide)
    )
    (property "Value" "GND" (at 204.47 76.708 0)
      (effects (font (size 1.27 1.27)))
    )
    (property "Footprint" "" (at 201.93 73.914 0)
      (effects (font (size 1.27 1.27)) hide)
    )
    (property "Datasheet" "" (at 201.93 73.914 0)
      (effects (font (size 1.27 1.27)) hide)
    )
    (pin "1" (uuid 4fa0f383-0244-4fd3-a441-431212d9d0bc))
    (instances
      (project "SAO_Linux-Australia"
        (path "/25d732cf-5b86-4d80-b3e8-a940981daf01"
          (reference "#PWR021") (unit 1)
        )
      )
    )
  )

  (symbol (lib_id "power:GND") (at 185.166 73.914 0) (unit 1)
    (in_bom yes) (on_board yes) (dnp no)
    (uuid ce235db7-bff6-494e-ae49-4172fc936a3f)
    (property "Reference" "#PWR018" (at 185.166 80.264 0)
      (effects (font (size 1.27 1.27)) hide)
    )
    (property "Value" "GND" (at 187.706 76.708 0)
      (effects (font (size 1.27 1.27)))
    )
    (property "Footprint" "" (at 185.166 73.914 0)
      (effects (font (size 1.27 1.27)) hide)
    )
    (property "Datasheet" "" (at 185.166 73.914 0)
      (effects (font (size 1.27 1.27)) hide)
    )
    (pin "1" (uuid 8bbcafe1-5f40-4d88-8ab0-3881f0a68434))
    (instances
      (project "SAO_Linux-Australia"
        (path "/25d732cf-5b86-4d80-b3e8-a940981daf01"
          (reference "#PWR018") (unit 1)
        )
      )
    )
  )

  (symbol (lib_id "power:GND") (at 150.876 142.748 0) (unit 1)
    (in_bom yes) (on_board yes) (dnp no)
    (uuid d5058811-75f0-4978-b4e0-1bbde1f80361)
    (property "Reference" "#PWR027" (at 150.876 149.098 0)
      (effects (font (size 1.27 1.27)) hide)
    )
    (property "Value" "GND" (at 149.352 146.812 0)
      (effects (font (size 1.27 1.27)))
    )
    (property "Footprint" "" (at 150.876 142.748 0)
      (effects (font (size 1.27 1.27)) hide)
    )
    (property "Datasheet" "" (at 150.876 142.748 0)
      (effects (font (size 1.27 1.27)) hide)
    )
    (pin "1" (uuid b35c2ce3-0c77-4f41-b5b9-83505e038b6f))
    (instances
      (project "SAO_Linux-Australia"
        (path "/25d732cf-5b86-4d80-b3e8-a940981daf01"
          (reference "#PWR027") (unit 1)
        )
      )
    )
  )

  (symbol (lib_id "power:GND") (at 131.572 142.748 0) (unit 1)
    (in_bom yes) (on_board yes) (dnp no)
    (uuid e61da7d2-bd15-4a9b-9171-b044bec5145a)
    (property "Reference" "#PWR04" (at 131.572 149.098 0)
      (effects (font (size 1.27 1.27)) hide)
    )
    (property "Value" "GND" (at 130.048 146.812 0)
      (effects (font (size 1.27 1.27)))
    )
    (property "Footprint" "" (at 131.572 142.748 0)
      (effects (font (size 1.27 1.27)) hide)
    )
    (property "Datasheet" "" (at 131.572 142.748 0)
      (effects (font (size 1.27 1.27)) hide)
    )
    (pin "1" (uuid 187f5866-97ba-4f6f-9d80-0d0879c8f80d))
    (instances
      (project "SAO_Linux-Australia"
        (path "/25d732cf-5b86-4d80-b3e8-a940981daf01"
          (reference "#PWR04") (unit 1)
        )
      )
    )
  )

  (symbol (lib_id "Device:C_Small") (at 142.24 72.644 90) (unit 1)
    (in_bom yes) (on_board yes) (dnp no)
    (uuid ecfb34bf-cc43-4f93-9295-62cb2490040a)
    (property "Reference" "C2" (at 139.7 71.12 90)
      (effects (font (size 1.27 1.27)))
    )
    (property "Value" "100nF" (at 138.43 74.168 90)
      (effects (font (size 1.27 1.27)))
    )
    (property "Footprint" "Capacitor_SMD:C_0603_1608Metric" (at 142.2463 69.3618 90)
      (effects (font (size 1.27 1.27)) hide)
    )
    (property "Datasheet" "~" (at 142.24 72.644 0)
      (effects (font (size 1.27 1.27)) hide)
    )
    (pin "1" (uuid 5bb99cfe-841b-4eff-8473-6c28c26d38f3))
    (pin "2" (uuid 1a1af68e-9b14-46a9-a3a1-9888cd39c886))
    (instances
      (project "SAO_Linux-Australia"
        (path "/25d732cf-5b86-4d80-b3e8-a940981daf01"
          (reference "C2") (unit 1)
        )
      )
    )
  )

  (symbol (lib_id "power:+3V3") (at 161.544 71.374 0) (unit 1)
    (in_bom yes) (on_board yes) (dnp no)
    (uuid f1c51910-d0ed-415a-b595-7b2a024d56bb)
    (property "Reference" "#PWR012" (at 161.544 75.184 0)
      (effects (font (size 1.27 1.27)) hide)
    )
    (property "Value" "+3V3" (at 163.068 67.818 0)
      (effects (font (size 1.27 1.27)))
    )
    (property "Footprint" "" (at 161.544 71.374 0)
      (effects (font (size 1.27 1.27)) hide)
    )
    (property "Datasheet" "" (at 161.544 71.374 0)
      (effects (font (size 1.27 1.27)) hide)
    )
    (pin "1" (uuid cf2163ea-1bd7-4eca-bceb-6d705ed98536))
    (instances
      (project "SAO_Linux-Australia"
        (path "/25d732cf-5b86-4d80-b3e8-a940981daf01"
          (reference "#PWR012") (unit 1)
        )
      )
    )
  )

  (symbol (lib_id "power:GND") (at 134.62 73.914 0) (unit 1)
    (in_bom yes) (on_board yes) (dnp no)
    (uuid f86ea491-4876-4fab-bdcd-63391d4f8210)
    (property "Reference" "#PWR05" (at 134.62 80.264 0)
      (effects (font (size 1.27 1.27)) hide)
    )
    (property "Value" "GND" (at 131.318 76.2 0)
      (effects (font (size 1.27 1.27)))
    )
    (property "Footprint" "" (at 134.62 73.914 0)
      (effects (font (size 1.27 1.27)) hide)
    )
    (property "Datasheet" "" (at 134.62 73.914 0)
      (effects (font (size 1.27 1.27)) hide)
    )
    (pin "1" (uuid 0de26a33-f384-4ba6-b7fe-095bae71a131))
    (instances
      (project "SAO_Linux-Australia"
        (path "/25d732cf-5b86-4d80-b3e8-a940981daf01"
          (reference "#PWR05") (unit 1)
        )
      )
    )
  )

  (symbol (lib_id "power:GND") (at 161.798 114.808 0) (unit 1)
    (in_bom yes) (on_board yes) (dnp no) (fields_autoplaced)
    (uuid fe776f60-3346-4f25-ad71-d3591acf4b02)
    (property "Reference" "#PWR014" (at 161.798 121.158 0)
      (effects (font (size 1.27 1.27)) hide)
    )
    (property "Value" "GND" (at 161.798 118.9411 0)
      (effects (font (size 1.27 1.27)))
    )
    (property "Footprint" "" (at 161.798 114.808 0)
      (effects (font (size 1.27 1.27)) hide)
    )
    (property "Datasheet" "" (at 161.798 114.808 0)
      (effects (font (size 1.27 1.27)) hide)
    )
    (pin "1" (uuid bc034052-f4b7-4315-a744-8cc2bb1366b4))
    (instances
      (project "SAO_Linux-Australia"
        (path "/25d732cf-5b86-4d80-b3e8-a940981daf01"
          (reference "#PWR014") (unit 1)
        )
      )
    )
  )

  (symbol (lib_id "power:GND") (at 140.208 121.158 0) (unit 1)
    (in_bom yes) (on_board yes) (dnp no)
    (uuid fe849f32-4203-41c3-a36a-d58fa9f4c0ea)
    (property "Reference" "#PWR07" (at 140.208 127.508 0)
      (effects (font (size 1.27 1.27)) hide)
    )
    (property "Value" "GND" (at 138.684 125.222 0)
      (effects (font (size 1.27 1.27)))
    )
    (property "Footprint" "" (at 140.208 121.158 0)
      (effects (font (size 1.27 1.27)) hide)
    )
    (property "Datasheet" "" (at 140.208 121.158 0)
      (effects (font (size 1.27 1.27)) hide)
    )
    (pin "1" (uuid abf86125-213b-4c5e-b360-18d15b4284e5))
    (instances
      (project "SAO_Linux-Australia"
        (path "/25d732cf-5b86-4d80-b3e8-a940981daf01"
          (reference "#PWR07") (unit 1)
        )
      )
    )
  )

  (sheet_instances
    (path "/" (page "1"))
  )
)
