(footprint "C_0402_1005Metric"
	(version 20240108)
	(generator "pcbnew")
	(generator_version "8.0")
	(layer "F.Cu")
	(descr "Capacitor SMD 0402 (1005 Metric), square (rectangular) end terminal, IPC_7351 nominal, (Body size source: IPC-SM-782 page 76, https://www.pcb-3d.com/wordpress/wp-content/uploads/ipc-sm-782a_amendment_1_and_2.pdf), generated with kicad-footprint-generator")
	(tags "capacitor")
	(property "Reference" "REF**"
		(at 0.456292 1.726125 90)
		(layer "F.SilkS")
		(uuid "af695faf-66fa-4531-8e87-83e22d856eba")
		(effects
			(font
				(size 0.8 0.8)
				(thickness 0.18)
			)
		)
	)
	(property "Value" "100nF"
		(at 0 1.16 0)
		(layer "F.Fab")
		(uuid "23e00a8d-6e7c-4a25-90ea-db6bf077a2e7")
		(effects
			(font
				(size 1 1)
				(thickness 0.15)
			)
		)
	)
	(property "Footprint" ""
		(at 0 0 0)
		(layer "F.Fab")
		(hide yes)
		(uuid "2fa57009-51dc-4797-a493-965767da7ba9")
		(effects
			(font
				(size 1.27 1.27)
				(thickness 0.15)
			)
		)
	)
	(property "Datasheet" ""
		(at 0 0 0)
		(layer "F.Fab")
		(hide yes)
		(uuid "d03a84e0-aa1e-44d1-9a14-adf122bb0e1d")
		(effects
			(font
				(size 1.27 1.27)
				(thickness 0.15)
			)
		)
	)
	(property "Description" "Unpolarized capacitor"
		(at 0 0 0)
		(layer "F.Fab")
		(hide yes)
		(uuid "3e893ec9-1930-4123-abf5-ac10dc9dbc00")
		(effects
			(font
				(size 1.27 1.27)
				(thickness 0.15)
			)
		)
	)
	(property "LCSC" " C1525"
		(at 185.095996 8.78988 -90)
		(layer "F.Fab")
		(hide yes)
		(uuid "0cb8945e-a6b0-48f1-991a-69eb6f34e7b0")
		(effects
			(font
				(size 1 1)
				(thickness 0.15)
			)
		)
	)
	(attr smd)
	(fp_line
		(start -0.107836 -0.36)
		(end 0.107836 -0.36)
		(stroke
			(width 0.12)
			(type solid)
		)
		(layer "F.SilkS")
		(uuid "b217f2cc-b915-49a4-9b35-05625e04041b")
	)
	(fp_line
		(start -0.107836 0.36)
		(end 0.107836 0.36)
		(stroke
			(width 0.12)
			(type solid)
		)
		(layer "F.SilkS")
		(uuid "74babb94-b184-4c5c-bd03-36728075d606")
	)
	(fp_line
		(start -0.91 -0.46)
		(end 0.91 -0.46)
		(stroke
			(width 0.05)
			(type solid)
		)
		(layer "F.CrtYd")
		(uuid "92706f71-8ff1-4880-b7ae-97ebc8857745")
	)
	(fp_line
		(start -0.91 0.46)
		(end -0.91 -0.46)
		(stroke
			(width 0.05)
			(type solid)
		)
		(layer "F.CrtYd")
		(uuid "563efa45-01ad-4407-bad9-16af55f65fbe")
	)
	(fp_line
		(start 0.91 -0.46)
		(end 0.91 0.46)
		(stroke
			(width 0.05)
			(type solid)
		)
		(layer "F.CrtYd")
		(uuid "95ba711b-60b2-4cd2-bc27-e563c58c029c")
	)
	(fp_line
		(start 0.91 0.46)
		(end -0.91 0.46)
		(stroke
			(width 0.05)
			(type solid)
		)
		(layer "F.CrtYd")
		(uuid "f1fa5ec1-fc6b-4f98-b3e3-78a1dc48089c")
	)
	(fp_line
		(start -0.5 -0.25)
		(end 0.5 -0.25)
		(stroke
			(width 0.1)
			(type solid)
		)
		(layer "F.Fab")
		(uuid "7a61d033-2a11-4be0-8915-492b3ab34da5")
	)
	(fp_line
		(start -0.5 0.25)
		(end -0.5 -0.25)
		(stroke
			(width 0.1)
			(type solid)
		)
		(layer "F.Fab")
		(uuid "46f3747f-958d-459b-8764-fe1862c878ac")
	)
	(fp_line
		(start 0.5 -0.25)
		(end 0.5 0.25)
		(stroke
			(width 0.1)
			(type solid)
		)
		(layer "F.Fab")
		(uuid "eff4023a-a282-47aa-9cc7-6c6db0180b05")
	)
	(fp_line
		(start 0.5 0.25)
		(end -0.5 0.25)
		(stroke
			(width 0.1)
			(type solid)
		)
		(layer "F.Fab")
		(uuid "4559846b-0f83-4484-97f2-e59cea46cd3e")
	)
	(fp_text user "${REFERENCE}"
		(at 0 0 0)
		(layer "F.Fab")
		(uuid "49d6cf56-6d12-46e0-b05a-d441ed1886ab")
		(effects
			(font
				(size 0.25 0.25)
				(thickness 0.04)
			)
		)
	)
	(pad "1" smd roundrect
		(at -0.48 0)
		(size 0.56 0.62)
		(layers "F.Cu" "F.Paste" "F.Mask")
		(roundrect_rratio 0.25)
		(uuid "bb092ad3-6e24-4974-a36d-768a085e750c")
	)
	(pad "2" smd roundrect
		(at 0.48 0)
		(size 0.56 0.62)
		(layers "F.Cu" "F.Paste" "F.Mask")
		(roundrect_rratio 0.25)
		(uuid "10bb11a1-767e-4d7b-9424-fbfe581282d8")
	)
	(model "${KICAD6_3DMODEL_DIR}/Capacitor_SMD.3dshapes/C_0402_1005Metric.wrl"
		(offset
			(xyz 0 0 0)
		)
		(scale
			(xyz 1 1 1)
		)
		(rotate
			(xyz 0 0 0)
		)
	)
)
