(footprint "MountingHole_4.3mm_M4"
	(version 20240108)
	(generator "pcbnew")
	(generator_version "8.0")
	(layer "F.Cu")
	(descr "Mounting Hole 4.3mm, no annular, M4")
	(tags "mounting hole 4.3mm no annular m4")
	(property "Reference" "REF**"
		(at 0 -5.3 0)
		(layer "F.SilkS")
		(hide yes)
		(uuid "316adc56-38a5-4753-b7dd-3e1c32c0195e")
		(effects
			(font
				(size 0.8 0.8)
				(thickness 0.18)
			)
		)
	)
	(property "Value" "M4"
		(at 0 5.3 0)
		(layer "F.Fab")
		(uuid "8f51c083-62e0-446f-9045-bdae8a1e0ad5")
		(effects
			(font
				(size 1 1)
				(thickness 0.15)
			)
		)
	)
	(property "Footprint" ""
		(at 0 0 0)
		(layer "F.Fab")
		(hide yes)
		(uuid "f4d5f721-4d21-43cd-8ce1-d20aa1e1f172")
		(effects
			(font
				(size 1.27 1.27)
				(thickness 0.15)
			)
		)
	)
	(property "Datasheet" ""
		(at 0 0 0)
		(layer "F.Fab")
		(hide yes)
		(uuid "4f1ca6a6-9ec5-4b95-acf6-abf6b6cbf84d")
		(effects
			(font
				(size 1.27 1.27)
				(thickness 0.15)
			)
		)
	)
	(property "Description" "Mounting Hole without connection"
		(at 0 0 0)
		(layer "F.Fab")
		(hide yes)
		(uuid "57978471-64c6-43b5-988a-93fb1bcd354e")
		(effects
			(font
				(size 1.27 1.27)
				(thickness 0.15)
			)
		)
	)
	(property "exclude_from_bom" ""
		(at 0 0 0)
		(layer "F.Fab")
		(hide yes)
		(uuid "1205cc83-42dc-4649-9cdf-309a971036b3")
		(effects
			(font
				(size 1 1)
				(thickness 0.15)
			)
		)
	)
	(attr exclude_from_pos_files exclude_from_bom)
	(fp_circle
		(center 0 0)
		(end 4.3 0)
		(stroke
			(width 0.15)
			(type solid)
		)
		(fill none)
		(layer "Cmts.User")
		(uuid "f84fe6f1-2a03-43a8-8e92-faa662ae977e")
	)
	(fp_circle
		(center 0 0)
		(end 4.55 0)
		(stroke
			(width 0.05)
			(type solid)
		)
		(fill none)
		(layer "F.CrtYd")
		(uuid "14d145c2-6412-4497-a045-498bf69f5397")
	)
	(fp_text user "${REFERENCE}"
		(at 0 0 0)
		(layer "F.Fab")
		(uuid "359bf10e-c68b-4c7c-a4d0-d6e285de2f56")
		(effects
			(font
				(size 1 1)
				(thickness 0.15)
			)
		)
	)
	(pad "" np_thru_hole circle
		(at 0 0)
		(size 4.3 4.3)
		(drill 4.3)
		(layers "*.Cu" "*.Mask")
		(uuid "55cfe5a4-b46f-4689-8c8a-c0c85eddd4f7")
	)
)
